*** Life<ConwayCell> 5x15 ***

Generation = 0, Population = 16.
........*.*..*.
*.....*..*.....
..*......*.....
*...*......**.*
..*......**....

*** Life<ConwayCell> 15x9 ***

Generation = 0, Population = 28.
*......*.
*...**...
......*..
..*...**.
*.*......
**.......
*....*..*
..*.*....
.*.**....
*..****..
.........
.........
......*..
......*..
.........

Generation = 11, Population = 4.
.........
.........
.........
.........
.........
.........
.........
.........
.........
.....**..
.....**..
.........
.........
.........
.........

Generation = 22, Population = 4.
.........
.........
.........
.........
.........
.........
.........
.........
.........
.....**..
.....**..
.........
.........
.........
.........

*** Life<ConwayCell> 20x6 ***

Generation = 0, Population = 21.
......
......
...*..
......
*.....
..*...
......
......
......
*....*
..*.*.
...*..
......
*...**
...**.
*.....
**.*..
..*...
*...*.
.....*

Generation = 4, Population = 10.
......
......
......
......
......
......
......
......
......
......
...**.
...**.
......
......
......
......
..***.
..***.
......
......

Generation = 8, Population = 10.
......
......
......
......
......
......
......
......
......
......
...**.
...**.
......
......
......
...*..
..*.*.
..*.*.
...*..
......

Generation = 12, Population = 10.
......
......
......
......
......
......
......
......
......
......
...**.
...**.
......
......
......
...*..
..*.*.
..*.*.
...*..
......

Generation = 16, Population = 10.
......
......
......
......
......
......
......
......
......
......
...**.
...**.
......
......
......
...*..
..*.*.
..*.*.
...*..
......

Generation = 20, Population = 10.
......
......
......
......
......
......
......
......
......
......
...**.
...**.
......
......
......
...*..
..*.*.
..*.*.
...*..
......

Generation = 24, Population = 10.
......
......
......
......
......
......
......
......
......
......
...**.
...**.
......
......
......
...*..
..*.*.
..*.*.
...*..
......

Generation = 28, Population = 10.
......
......
......
......
......
......
......
......
......
......
...**.
...**.
......
......
......
...*..
..*.*.
..*.*.
...*..
......

Generation = 32, Population = 10.
......
......
......
......
......
......
......
......
......
......
...**.
...**.
......
......
......
...*..
..*.*.
..*.*.
...*..
......

*** Life<ConwayCell> 12x16 ***

Generation = 0, Population = 20.
*...............
*...............
...*........*.*.
.............*..
..............*.
...........*....
.....*..........
..*.............
....*....*...*..
.....*.......*..
.............*..
.......*..*.**..

Generation = 19, Population = 10.
................
................
.............**.
.............**.
................
................
................
................
.............*..
............*.*.
............*.*.
.............*..

*** Life<ConwayCell> 9x20 ***

Generation = 0, Population = 22.
.*..*.*.*......*....
....*..........*....
.......*............
.........*..........
....*...............
......***.*....*....
....*.............*.
............*...*...
....*............**.

*** Life<ConwayCell> 16x19 ***

Generation = 0, Population = 27.
......*............
...................
............*......
...................
....*..*...........
......*............
...................
............*.....*
...*........*...*..
....*......*.....*.
.....*.............
*.....*............
.*.*...**.........*
.*.................
......*.........*..
....*.*..*.........

Generation = 19, Population = 24.
...................
...................
...................
...................
...................
...................
....**.............
***.....*..........
*..*....*..........
.*.......*.........
.**..*...*.........
..*.*...*..........
....**.............
....*..............
.....***...........
...................

Generation = 38, Population = 10.
...................
...................
...................
...................
...................
...................
...................
...................
....**.............
...*..*............
....**.............
...................
...................
...................
...*..*............
...*..*............

*** Life<ConwayCell> 9x12 ***

Generation = 0, Population = 16.
...*......*.
.*..........
*.*...***.*.
............
....*....**.
*..........*
.....*.*....
............
............

*** Life<ConwayCell> 5x20 ***

Generation = 0, Population = 30.
**.*.............**.
..**.*.*.*..*...*.*.
**..**.............*
*...**....*...*.....
..**....*.*.**...*..

Generation = 15, Population = 0.
....................
....................
....................
....................
....................

*** Life<ConwayCell> 14x9 ***

Generation = 0, Population = 12.
.........
.........
**..*..*.
.........
.........
.........
.........
.........
........*
....***..
.........
.........
.*.....*.
....*.*..

Generation = 15, Population = 3.
.........
.........
.........
.........
.........
.........
.........
.........
.....*...
.....*...
.....*...
.........
.........
.........

Generation = 30, Population = 3.
.........
.........
.........
.........
.........
.........
.........
.........
.........
....***..
.........
.........
.........
.........

*** Life<ConwayCell> 12x6 ***

Generation = 0, Population = 10.
.*..*.
*.....
.*....
......
*.....
......
.*....
......
......
.*....
**.*..
......

Generation = 16, Population = 6.
......
......
......
......
......
......
......
......
.*....
*.*...
*.*...
.*....

*** Life<ConwayCell> 17x12 ***

Generation = 0, Population = 2.
............
............
............
.....*......
............
............
.....*......
............
............
............
............
............
............
............
............
............
............

Generation = 4, Population = 0.
............
............
............
............
............
............
............
............
............
............
............
............
............
............
............
............
............

Generation = 8, Population = 0.
............
............
............
............
............
............
............
............
............
............
............
............
............
............
............
............
............

Generation = 12, Population = 0.
............
............
............
............
............
............
............
............
............
............
............
............
............
............
............
............
............

Generation = 16, Population = 0.
............
............
............
............
............
............
............
............
............
............
............
............
............
............
............
............
............

Generation = 20, Population = 0.
............
............
............
............
............
............
............
............
............
............
............
............
............
............
............
............
............

Generation = 24, Population = 0.
............
............
............
............
............
............
............
............
............
............
............
............
............
............
............
............
............

Generation = 28, Population = 0.
............
............
............
............
............
............
............
............
............
............
............
............
............
............
............
............
............

Generation = 32, Population = 0.
............
............
............
............
............
............
............
............
............
............
............
............
............
............
............
............
............

Generation = 36, Population = 0.
............
............
............
............
............
............
............
............
............
............
............
............
............
............
............
............
............

Generation = 40, Population = 0.
............
............
............
............
............
............
............
............
............
............
............
............
............
............
............
............
............

Generation = 44, Population = 0.
............
............
............
............
............
............
............
............
............
............
............
............
............
............
............
............
............

*** Life<ConwayCell> 19x15 ***

Generation = 0, Population = 13.
............*..
...............
.........*.....
.........*.....
....*..........
...............
...............
...*...........
............*..
...........*..*
...............
.............*.
...............
*.......*..*...
...............
...............
...............
...............
..*............

Generation = 2, Population = 0.
...............
...............
...............
...............
...............
...............
...............
...............
...............
...............
...............
...............
...............
...............
...............
...............
...............
...............
...............

Generation = 4, Population = 0.
...............
...............
...............
...............
...............
...............
...............
...............
...............
...............
...............
...............
...............
...............
...............
...............
...............
...............
...............

Generation = 6, Population = 0.
...............
...............
...............
...............
...............
...............
...............
...............
...............
...............
...............
...............
...............
...............
...............
...............
...............
...............
...............

Generation = 8, Population = 0.
...............
...............
...............
...............
...............
...............
...............
...............
...............
...............
...............
...............
...............
...............
...............
...............
...............
...............
...............

Generation = 10, Population = 0.
...............
...............
...............
...............
...............
...............
...............
...............
...............
...............
...............
...............
...............
...............
...............
...............
...............
...............
...............

Generation = 12, Population = 0.
...............
...............
...............
...............
...............
...............
...............
...............
...............
...............
...............
...............
...............
...............
...............
...............
...............
...............
...............

Generation = 14, Population = 0.
...............
...............
...............
...............
...............
...............
...............
...............
...............
...............
...............
...............
...............
...............
...............
...............
...............
...............
...............

*** Life<ConwayCell> 14x9 ***

Generation = 0, Population = 9.
....*..*.
.........
.......*.
...*.....
.........
.........
**.......
.........
......*..
.........
.........
....*....
...*.....
.........

Generation = 20, Population = 0.
.........
.........
.........
.........
.........
.........
.........
.........
.........
.........
.........
.........
.........
.........

Generation = 40, Population = 0.
.........
.........
.........
.........
.........
.........
.........
.........
.........
.........
.........
.........
.........
.........

*** Life<ConwayCell> 8x9 ***

Generation = 0, Population = 15.
..*......
.*.*..*..
..*..*...
......*..
......*..
...*.....
..*......
*.**.**..

Generation = 3, Population = 13.
..*......
.*.***...
..***.*..
....*.*..
.........
.........
..*......
..*......

Generation = 6, Population = 8.
..****...
..*..*...
....**...
.........
.........
.........
.........
.........

Generation = 9, Population = 6.
..****...
..*...*..
.........
.........
.........
.........
.........
.........

Generation = 12, Population = 0.
.........
.........
.........
.........
.........
.........
.........
.........

Generation = 15, Population = 0.
.........
.........
.........
.........
.........
.........
.........
.........

Generation = 18, Population = 0.
.........
.........
.........
.........
.........
.........
.........
.........

Generation = 21, Population = 0.
.........
.........
.........
.........
.........
.........
.........
.........

Generation = 24, Population = 0.
.........
.........
.........
.........
.........
.........
.........
.........

Generation = 27, Population = 0.
.........
.........
.........
.........
.........
.........
.........
.........

Generation = 30, Population = 0.
.........
.........
.........
.........
.........
.........
.........
.........

Generation = 33, Population = 0.
.........
.........
.........
.........
.........
.........
.........
.........

Generation = 36, Population = 0.
.........
.........
.........
.........
.........
.........
.........
.........

*** Life<ConwayCell> 20x10 ***

Generation = 0, Population = 31.
...**...*.
..*.....**
..........
...*.*.**.
.*........
...*......
*........*
..........
..*.......
..*..*..*.
.....*....
..........
.........*
...*......
......**..
.*......*.
...*......
..........
..*...*...
...**....*

*** Life<ConwayCell> 6x15 ***

Generation = 0, Population = 16.
.....*....**.*.
...*...........
*...*..........
.....*...*.*...
**...*...*.....
.*.........*...

Generation = 12, Population = 13.
...*...........
.***...........
***............
**.............
.*.............
.***...........

Generation = 24, Population = 3.
...............
..***..........
...............
...............
...............
...............

Generation = 36, Population = 3.
...............
..***..........
...............
...............
...............
...............

Generation = 48, Population = 3.
...............
..***..........
...............
...............
...............
...............

*** Life<ConwayCell> 20x11 ***

Generation = 0, Population = 30.
...........
.....*..*..
...........
..*........
...*.*.....
....**.....
**.......*.
.*.........
..**...***.
......*..*.
.*.........
....*..*...
...........
....*......
.*....*...*
...........
...........
........*..
*.*...*....
..........*

Generation = 4, Population = 14.
...........
...........
...........
...........
....**.....
....**.....
**.......*.
*.*.....*.*
.*.........
.........**
...........
...........
...........
...........
...........
...........
...........
...........
...........
...........

Generation = 8, Population = 9.
...........
...........
...........
...........
....**.....
....**.....
**.........
*.*........
.*.........
...........
...........
...........
...........
...........
...........
...........
...........
...........
...........
...........

Generation = 12, Population = 9.
...........
...........
...........
...........
....**.....
....**.....
**.........
*.*........
.*.........
...........
...........
...........
...........
...........
...........
...........
...........
...........
...........
...........

*** Life<ConwayCell> 9x18 ***

Generation = 0, Population = 8.
..............*...
...............*..
..................
.....*............
*...*.............
..................
..................
.............*...*
......*...........

*** Life<ConwayCell> 17x20 ***

Generation = 0, Population = 24.
.......*..*.........
....................
.....*............**
............*.......
.................*..
...............*...*
...........*........
..........*.........
.................*..
....*.......*.......
............*.......
...........*.....*..
....................
...*.*..*...........
..............*..*..
.........*...*......
....................

Generation = 25, Population = 0.
....................
....................
....................
....................
....................
....................
....................
....................
....................
....................
....................
....................
....................
....................
....................
....................
....................

*** Life<ConwayCell> 9x11 ***

Generation = 0, Population = 13.
*...*.*....
.*...*.....
*..........
......*....
...........
...**.....*
.*.........
....*......
.....*.....

*** Life<ConwayCell> 10x9 ***

Generation = 0, Population = 31.
....*..*.
...***..*
****.***.
***.....*
.........
*.*.*....
*..*.*...
*.*.*..*.
.*...*..*
....*....

Generation = 17, Population = 14.
.........
.........
.........
.........
**..***..
***..**..
*.....**.
.*.......
.........
.........

*** Life<ConwayCell> 15x7 ***

Generation = 0, Population = 20.
*.*....
.......
.*...*.
..*..**
...*...
.......
*...**.
...*...
.......
...*...
.....*.
......*
*...*..
.*.....
...**..

Generation = 3, Population = 7.
.......
.......
.......
....*..
...***.
.....*.
....*..
....*..
.......
.......
.......
.......
.......
.......
.......

Generation = 6, Population = 12.
.......
.......
....*..
..**.**
..**...
..**...
....***
.......
.......
.......
.......
.......
.......
.......
.......

Generation = 9, Population = 19.
.......
...***.
..*..*.
.*...*.
.*.....
.*.*.**
..**.**
....***
.......
.......
.......
.......
.......
.......
.......

Generation = 12, Population = 29.
...***.
..**..*
.*...**
**..*.*
*.****.
*****.*
.*....*
...*..*
.....*.
.......
.......
.......
.......
.......
.......

Generation = 15, Population = 23.
.....*.
.**...*
***...*
***.*.*
.....**
**....*
**....*
.....**
.......
.......
.......
.......
.......
.......
.......

*** Life<ConwayCell> 10x8 ***

Generation = 0, Population = 22.
..*.*...
.....*.*
.**....*
*..**..*
......*.
**......
..**..*.
..*..*..
...*....
*...*...

Generation = 18, Population = 10.
........
........
........
......**
......**
........
........
..**....
.*..*...
..**....

Generation = 36, Population = 10.
........
........
........
......**
......**
........
........
..**....
.*..*...
..**....

*** Life<ConwayCell> 10x20 ***

Generation = 0, Population = 2.
....................
....................
....................
....................
....................
...*................
..................*.
....................
....................
....................

*** Life<ConwayCell> 14x17 ***

Generation = 0, Population = 32.
..*....*...****..
..**..........*..
.....*.*.........
......*..........
..*.**.....*.....
............*....
........*..*.....
..........**.....
.*...............
.........*......*
......*...**.....
.*...............
.*..*........*...
........*........

Generation = 11, Population = 21.
..*.*............
.**.**...........
.................
.................
.................
........***......
.......*..*......
......*...*......
......*..........
......*...*......
.......*..*......
........***......
.................
.................

Generation = 22, Population = 41.
.**..*.**.*......
.**..*.**.*......
.................
...........***...
..........*......
.........**.**...
.......**.**.....
....*..*.........
..**....**.......
....*..*.........
.................
............*....
.......**..*.*...
.......**..*.*...

Generation = 33, Population = 35.
.**..............
.**..............
.................
..........*......
....*..*...*.....
....*.....*..*...
......**.**..*...
*.*...*.*........
*..*...**........
*.........*......
.*..*............
..***..*..*......
.........*.......
........*........

*** Life<ConwayCell> 15x10 ***

Generation = 0, Population = 11.
..........
.......**.
.....*....
..........
.........*
*.........
.*........
..........
..........
*......*.*
.....*....
..........
..........
..........
.......*..

*** Life<ConwayCell> 17x5 ***

Generation = 0, Population = 7.
.....
.....
.....
.*...
.*...
.....
.*...
.....
.....
.....
.....
.....
.....
...*.
....*
...*.
.*...

*** Life<ConwayCell> 20x13 ***

Generation = 0, Population = 29.
..*.....*.*..
.............
.............
.............
.........*...
....*....*...
....*........
*..*.........
..*..........
...*.*.......
.............
.*...........
..*......*...
*.......*....
......*....*.
...*.....*...
.............
....**.......
.....*.*...*.
*....**......

Generation = 10, Population = 19.
.............
.............
.............
.............
.............
.............
.............
.............
.............
.............
.............
.............
.............
.............
....*........
...***.......
..*.*.*......
.***.***.....
..*.*.*......
...***.......

Generation = 20, Population = 10.
.............
.............
.............
.............
.............
.............
.............
.............
.............
.............
.............
.............
.............
.............
.............
.............
.*.....*.....
..**.**.**...
.*.....*.....
.............

Generation = 30, Population = 9.
.............
.............
.............
.............
.............
.............
.............
.............
.............
.............
.............
.............
.............
.............
.............
.............
.*.......**..
..*.....*..*.
.*.......**..
.............

*** Life<ConwayCell> 5x12 ***

Generation = 0, Population = 22.
.....*..***.
**..*.*....*
*.*.*.****.*
..**.....*.*
.*..........

*** Life<ConwayCell> 20x19 ***

Generation = 0, Population = 17.
....*...........*..
...................
...................
.....*.............
.............*.....
...................
...................
.....*.............
...*...............
..............*....
........*...*......
*...**.............
...................
...................
...................
...................
...................
........*..........
*...........*.*....
..............*....

*** Life<ConwayCell> 20x18 ***

Generation = 0, Population = 12.
..................
..................
..................
...*..............
..................
..................
...*.............*
..................
..................
..................
*.................
..................
..................
......*..*...*....
*.............*..*
.............*....
..................
.*................
..................
..................

*** Life<ConwayCell> 13x17 ***

Generation = 0, Population = 31.
.......*.......*.
...*.............
...*.......***...
*................
...*.......*....*
*.*......*...*...
*........*.......
.................
...*.*.......*...
...*...*...*..*..
....*.*....*.*...
.................
.....*..*.......*

*** Life<ConwayCell> 20x14 ***

Generation = 0, Population = 15.
..............
.*......*...*.
............*.
....*.........
..............
..............
.*............
..............
..............
..............
*.............
..............
..............
....*.........
.......*......
......*...*...
.......*......
........**....
..............
........*.....

*** Life<ConwayCell> 18x10 ***

Generation = 0, Population = 32.
*.........
.*.....**.
**..*....*
..........
........*.
...*......
.....*....
.**.......
..........
..........
.**.......
*.*****..*
..**......
....**....
....*...*.
......*...
..........
......***.

*** Life<ConwayCell> 20x20 ***

Generation = 0, Population = 33.
*...................
.*..*.....*..*......
.........*.....*....
.*..................
.........*.*.......*
....*..*.**...*...*.
...........*........
...............*....
......*.............
*...................
.............*......
..*....*.....*......
...........***......
..............*.....
....................
....................
............*.......
...........*........
.*.............*....
....................

Generation = 16, Population = 4.
....................
....................
....................
....................
........**..........
........**..........
....................
....................
....................
....................
....................
....................
....................
....................
....................
....................
....................
....................
....................
....................

*** Life<ConwayCell> 10x20 ***

Generation = 0, Population = 11.
..**................
....................
*.*.................
....................
..*.................
...................*
....................
................*...
.*.*...............*
..........*.........

Generation = 1, Population = 4.
....................
.***................
....................
.*..................
....................
....................
....................
....................
....................
....................

Generation = 2, Population = 3.
..*.................
..*.................
.*..................
....................
....................
....................
....................
....................
....................
....................

Generation = 3, Population = 2.
....................
.**.................
....................
....................
....................
....................
....................
....................
....................
....................

Generation = 4, Population = 0.
....................
....................
....................
....................
....................
....................
....................
....................
....................
....................

Generation = 5, Population = 0.
....................
....................
....................
....................
....................
....................
....................
....................
....................
....................

Generation = 6, Population = 0.
....................
....................
....................
....................
....................
....................
....................
....................
....................
....................

Generation = 7, Population = 0.
....................
....................
....................
....................
....................
....................
....................
....................
....................
....................

Generation = 8, Population = 0.
....................
....................
....................
....................
....................
....................
....................
....................
....................
....................

Generation = 9, Population = 0.
....................
....................
....................
....................
....................
....................
....................
....................
....................
....................

Generation = 10, Population = 0.
....................
....................
....................
....................
....................
....................
....................
....................
....................
....................

Generation = 11, Population = 0.
....................
....................
....................
....................
....................
....................
....................
....................
....................
....................

Generation = 12, Population = 0.
....................
....................
....................
....................
....................
....................
....................
....................
....................
....................

Generation = 13, Population = 0.
....................
....................
....................
....................
....................
....................
....................
....................
....................
....................

*** Life<ConwayCell> 10x12 ***

Generation = 0, Population = 5.
............
*.........*.
............
.*.........*
......*.....
............
............
............
............
............

Generation = 5, Population = 0.
............
............
............
............
............
............
............
............
............
............

Generation = 10, Population = 0.
............
............
............
............
............
............
............
............
............
............

Generation = 15, Population = 0.
............
............
............
............
............
............
............
............
............
............

Generation = 20, Population = 0.
............
............
............
............
............
............
............
............
............
............

*** Life<ConwayCell> 19x20 ***

Generation = 0, Population = 18.
...........*...*....
....................
.............*.*....
.................*.*
....*...............
............*.......
*...................
....................
....................
.......*............
....................
....................
..**.....*........*.
....................
....................
........*...........
....................
.......*........*...
.......*............

*** Life<ConwayCell> 11x12 ***

Generation = 0, Population = 28.
.......*....
....**..*...
..........*.
..*...*..*..
.**....*....
....***.*..*
......*.....
.........*..
.***........
*...*.*.*..*
*...*.......

Generation = 15, Population = 18.
............
......*.....
....**.*....
.....*.*....
......*.....
............
............
***...**....
***..*.*....
.*..........
............

Generation = 30, Population = 31.
.......*....
......***...
.....**.*...
............
............
.....**.**..
**...**.**..
..**...*....
*.*.***.....
*..***......
.**.........

Generation = 45, Population = 12.
............
............
.......***..
.........*..
.....**..*..
....*.......
....*.**....
.....*......
............
............
............

*** Life<ConwayCell> 7x12 ***

Generation = 0, Population = 12.
..........**
............
........*.*.
*...........
............
.....**.....
..*....***.*

Generation = 10, Population = 3.
..........*.
..........*.
..........*.
............
............
............
............

Generation = 20, Population = 3.
..........*.
..........*.
..........*.
............
............
............
............

Generation = 30, Population = 3.
..........*.
..........*.
..........*.
............
............
............
............

Generation = 40, Population = 3.
..........*.
..........*.
..........*.
............
............
............
............

*** Life<ConwayCell> 19x7 ***

Generation = 0, Population = 28.
..*.**.
*...*..
....*.*
*......
**.*...
......*
***.**.
..*....
.......
.......
..*...*
*..*...
.......
.*..*..
.......
.....*.
*......
*..*...
.......

*** Life<ConwayCell> 7x9 ***

Generation = 0, Population = 23.
*.*.*..*.
.****....
..**.....
*.......*
.*..**.*.
*...*..**
*..*...*.

*** Life<ConwayCell> 13x13 ***

Generation = 0, Population = 9.
..........*..
.............
.............
*............
..*..*.......
......*......
..........*..
....*........
.............
..........*..
*............
.............
.............

*** Life<ConwayCell> 10x19 ***

Generation = 0, Population = 17.
*..................
...................
............**.....
..........*.....*..
....*..............
...................
.*.*......*...*....
...............*...
........*....*.....
..*.*..........**..

Generation = 18, Population = 6.
...................
...................
...................
...................
...................
...................
...................
..............**...
.............*..*..
..............**...

*** Life<ConwayCell> 7x16 ***

Generation = 0, Population = 10.
.....*..........
.....*..**..*...
..........*..*..
.....*..........
................
......*.........
*...............

Generation = 1, Population = 2.
................
.........*......
.........*......
................
................
................
................

Generation = 2, Population = 0.
................
................
................
................
................
................
................

Generation = 3, Population = 0.
................
................
................
................
................
................
................

Generation = 4, Population = 0.
................
................
................
................
................
................
................

Generation = 5, Population = 0.
................
................
................
................
................
................
................

Generation = 6, Population = 0.
................
................
................
................
................
................
................

Generation = 7, Population = 0.
................
................
................
................
................
................
................

Generation = 8, Population = 0.
................
................
................
................
................
................
................

Generation = 9, Population = 0.
................
................
................
................
................
................
................

Generation = 10, Population = 0.
................
................
................
................
................
................
................

Generation = 11, Population = 0.
................
................
................
................
................
................
................

Generation = 12, Population = 0.
................
................
................
................
................
................
................

Generation = 13, Population = 0.
................
................
................
................
................
................
................

Generation = 14, Population = 0.
................
................
................
................
................
................
................

Generation = 15, Population = 0.
................
................
................
................
................
................
................

Generation = 16, Population = 0.
................
................
................
................
................
................
................

Generation = 17, Population = 0.
................
................
................
................
................
................
................

Generation = 18, Population = 0.
................
................
................
................
................
................
................

Generation = 19, Population = 0.
................
................
................
................
................
................
................

Generation = 20, Population = 0.
................
................
................
................
................
................
................

Generation = 21, Population = 0.
................
................
................
................
................
................
................

Generation = 22, Population = 0.
................
................
................
................
................
................
................

Generation = 23, Population = 0.
................
................
................
................
................
................
................

Generation = 24, Population = 0.
................
................
................
................
................
................
................

Generation = 25, Population = 0.
................
................
................
................
................
................
................

Generation = 26, Population = 0.
................
................
................
................
................
................
................

Generation = 27, Population = 0.
................
................
................
................
................
................
................

Generation = 28, Population = 0.
................
................
................
................
................
................
................

Generation = 29, Population = 0.
................
................
................
................
................
................
................

Generation = 30, Population = 0.
................
................
................
................
................
................
................

Generation = 31, Population = 0.
................
................
................
................
................
................
................

Generation = 32, Population = 0.
................
................
................
................
................
................
................

Generation = 33, Population = 0.
................
................
................
................
................
................
................

Generation = 34, Population = 0.
................
................
................
................
................
................
................

Generation = 35, Population = 0.
................
................
................
................
................
................
................

Generation = 36, Population = 0.
................
................
................
................
................
................
................

Generation = 37, Population = 0.
................
................
................
................
................
................
................

Generation = 38, Population = 0.
................
................
................
................
................
................
................

Generation = 39, Population = 0.
................
................
................
................
................
................
................

Generation = 40, Population = 0.
................
................
................
................
................
................
................

Generation = 41, Population = 0.
................
................
................
................
................
................
................

Generation = 42, Population = 0.
................
................
................
................
................
................
................

Generation = 43, Population = 0.
................
................
................
................
................
................
................

Generation = 44, Population = 0.
................
................
................
................
................
................
................

Generation = 45, Population = 0.
................
................
................
................
................
................
................

Generation = 46, Population = 0.
................
................
................
................
................
................
................

Generation = 47, Population = 0.
................
................
................
................
................
................
................

Generation = 48, Population = 0.
................
................
................
................
................
................
................

*** Life<ConwayCell> 13x8 ***

Generation = 0, Population = 25.
...*....
...*....
.*..*.*.
...*....
**.*..**
...*.*..
*....*..
......*.
..**....
.*.*....
.....*..
*.**....
.......*

*** Life<ConwayCell> 13x17 ***

Generation = 0, Population = 11.
.......*.........
.................
.........*..*....
.................
.........*.......
.................
.......*.........
..*..............
.................
.................
*..........*.....
.*.............*.
......*..........

Generation = 9, Population = 0.
.................
.................
.................
.................
.................
.................
.................
.................
.................
.................
.................
.................
.................

Generation = 18, Population = 0.
.................
.................
.................
.................
.................
.................
.................
.................
.................
.................
.................
.................
.................

Generation = 27, Population = 0.
.................
.................
.................
.................
.................
.................
.................
.................
.................
.................
.................
.................
.................

*** Life<ConwayCell> 9x10 ***

Generation = 0, Population = 29.
.**......*
....*.....
*...***.*.
.*.....*..
*...*..*.*
..*..*...*
*.*...*...
.*..*.....
..**.****.

Generation = 24, Population = 13.
..........
..........
.***......
....*.....
.....*....
*.*...*...
......*...
....*.*...
....**....

*** Life<ConwayCell> 16x17 ***

Generation = 0, Population = 32.
....*..*.....*.*.
.....*....*..**..
...*....*........
...*....*.....*..
.....*.......*..*
...*.......*.*..*
.................
..........*.*....
...........*...**
.................
.................
.................
..*........*.....
....*............
...........*....*
......*....*.....

Generation = 16, Population = 6.
.................
....*............
...*.*...........
...*.*...........
....*............
.................
.................
.................
.................
.................
.................
.................
.................
.................
.................
.................

*** Life<ConwayCell> 19x17 ***

Generation = 0, Population = 22.
....*............
.................
......*...**.....
...*.*...........
........*........
.............*...
.................
.............*...
...............*.
*.......*........
...**............
..*..............
....*............
....*............
.............*...
......*..........
..*..............
.........*.......
...........*.....
